{
  "port": 5000,
  "jwtAccessSecret": "eva@mariia-dorul",
  "jwtRefreshSecret":"refresh-eva@mariia-dorul",
  "mongoUri": "mongodb+srv://anastasiiadorul:TdfLjhek0302@cluster0-bjtg4.mongodb.net/app?retryWrites=true&w=majority",
  "google_user":"shvedanastasiia@gmail.com",
  "google_password":"FyfcnfcbzIdtl1202",
  "domain":"http://localhost:3000",
  "smtp_host":"smtp.gmail.com",
  "smtp_port":587,
  "smtp_user":"shvedanastasiia@gmail.com",
  "smtp_password":"FyfcnfcbzIdtl1202",
  "api_url":"http://localhost:5000",
  "client_url":"http://localhost:3000"
}
